[
  {
    "id": 3996,
    "army": "Ariadna",
    "army_id": 3999,
    "name": "USAriadna Ranger Force",
    "legacy_name": "USAriadna Ranger Force",
    "abbr": "USAriadna",
    "units": [
      {
        "comment": "USAriadna Grunts",
        "id": 3004,
        "ava": "T",
        "linkable": true,
        "note": "Options with Inferior Infiltration may not join a Fireteam"
      },
      {
        "comment": "6th Airborne Rangers",
        "id": 3044,
        "ava": "4"
      },
      {
        "comment": "Mavericks, 9th Motorized Recon Bat.",
        "id": 3042,
        "ava": "5"
      },
      {
        "comment": "Marauders, 5307th Ranger Unit",
        "id": 3041,
        "ava": "5",
        "linkable": true
      },
      {
        "comment": "Minutemen",
        "id": 3006,
        "ava": "5",
        "linkable": true
      },
      {
        "comment": "Blackjacks",
        "id": 3047,
        "ava": "3"
      },
      {
        "comment": "Foxtrot",
        "id": 3009,
        "ava": "4"
      },
      {
        "comment": "Hardcases",
        "id": 3010,
        "ava": "3"
      },
      {
        "comment": "Devil Dog Teams, 2nd Assault Bat.",
        "id": 3043,
        "ava": "3"
      },
      {
        "comment": "Desperadoes",
        "id": 3045,
        "ava": "6"
      },
      {
        "comment": "112, Emergency Service",
        "id": 3017,
        "ava": "2"
      },
      {
        "comment": "Dozers, Field Engineers",
        "id": 3024,
        "ava": "1"
      },
      {
        "comment": "Traktor Mul, Artillery and Support Regiment",
        "id": 3028,
        "ava": "2"
      },
      {
        "comment": "Intel Spec-Ops",
        "id": 3040,
        "ava": "1"
      },
      {
        "comment": "Van Zant",
        "id": 3031,
        "ava": "1"
      },
      {
        "comment": "Unknown Ranger",
        "id": 3048,
        "ava": "1"
      },
      {
        "comment": "Rosie",
        "id": 3049,
        "ava": "1",
        "linkable": true,
        "note": "Rosie counts as a Grunt for Fireteam composition"
      },
      {
        "comment": "Warcor",
        "id": 9017,
        "ava": "1"
      },
      {
        "comment": "Wardrivers",
        "id": 9021,
        "ava": "1"
      }
    ]
  }
]
