[
  {
    "id": 5998,
    "army": "Nomads",
    "army_id": 5999,
    "name": "Corregidor Jurisdictional Command",
    "legacy_name": "Corregidor Jurisdictional Command",
    "abbr": "Corregidor",
    "units": [
      {
        "comment": "Alguaciles",
        "id": 5001,
        "ava": "T",
        "linkable": true
      },
      {
        "comment": "Wildcats, Polyvalent Tactical Unit",
        "id": 5044,
        "ava": "5",
        "linkable": true
      },
      {
        "comment": "Tomcats",
        "id": 5034,
        "ava": "4"
      },
      {
        "comment": "Hellcats",
        "id": 5004,
        "ava": "5"
      },
      {
        "comment": "Intruders",
        "id": 5005,
        "ava": "5"
      },
      {
        "comment": "Mobile Brigada",
        "id": 5008,
        "ava": "6",
        "linkable": true
      },
      {
        "comment": "Iguana Squadron",
        "id": 5026,
        "ava": "1"
      },
      {
        "comment": "Gecko",
        "id": 5045,
        "ava": "4"
      },
      {
        "comment": "Moran, Maasai Hunter",
        "id": 5029,
        "ava": "2"
      },
      {
        "comment": "Corregidor Bandits",
        "id": 5013,
        "ava": "2"
      },
      {
        "comment": "Corregidor Jaguars",
        "id": 5015,
        "ava": "5",
        "note": "Special Fireteam: Core 1-4 Jaguars + Señor Massacre<br>Special Fireteam: Haris 1-2 Jaguars + Señor Massacre (Fireteam: Haris)"
      },
      {
        "comment": "Carlota Kowalsky, Tomcats Sergeant",
        "id": 5040,
        "ava": "1"
      },
      {
        "comment": "Tsyklon Sputniks",
        "id": 5035,
        "ava": "2"
      },
      {
        "comment": "Lunokhod Sputniks",
        "id": 5027,
        "ava": "2"
      },
      {
        "comment": "Stempler Zond",
        "id": 5019,
        "ava": "1"
      },
      {
        "comment": "Reaktion Zond",
        "id": 5020,
        "ava": "1"
      },
      {
        "comment": "Vertigo Zond",
        "id": 5021,
        "ava": "1"
      },
      {
        "comment": "Transductor Zond",
        "id": 5023,
        "ava": "2"
      },
      {
        "comment": "Zondbots",
        "id": 5036,
        "ava": "2"
      },
      {
        "comment": "Salyut Zonds",
        "id": 5032,
        "ava": "1"
      },
      {
        "comment": "Clockmakers",
        "id": 5017,
        "ava": "2"
      },
      {
        "comment": "Daktaris",
        "id": 5016,
        "ava": "1"
      },
      {
        "comment": "Vortex Spec-Ops",
        "id": 5042,
        "ava": "1"
      },
      {
        "comment": "Alguacil Vortex Lupe Balboa",
        "id": 5043,
        "ava": "1",
        "linkable": true,
        "note": "Counts as Alguacil for Fireteam composition"
      },
      {
        "comment": "Warcor",
        "id": 9017,
        "ava": "1"
      },
      {
        "comment": "Señor Massacre",
        "id": 9011,
        "ava": "1",
        "note": "Fireteam: Core of Señor Massacre and up to 4 Jaguars<br>Fireteam: Haris of Señor Massacre and up to 2 Jaguars"
      },
      {
        "comment": "McMurrough",
        "id": 9005,
        "ava": "1"
      },
      {
        "comment": "Valerya Gromoz, Mercenary Hacker",
        "id": 9012,
        "ava": "1"
      }
    ]
  }
]
