[
  {
    "name": "AP CCW",
    "burst": "1",
    "ammo": "AP",
    "damage": "PH",
    "short_dist": "--",
    "short_mod": "--",
    "medium_dist": "--",
    "medium_mod": "--",
    "long_dist": "--",
    "long_mod": "--",
    "max_dist": "--",
    "max_mod": "--",
    "cc": "Yes",
    "template": "No",
    "note": ""
  },
  {
    "name": "AP HMG",
    "burst": "4",
    "ammo": "AP",
    "damage": "15",
    "short_dist": "8",
    "short_mod": "-3",
    "medium_dist": "16",
    "medium_mod": "0",
    "long_dist": "32",
    "long_mod": "3",
    "max_dist": "48",
    "max_mod": "-3",
    "cc": "No",
    "template": "No",
    "suppressive": "Yes",
    "note": ""
  },
  {
    "name": "AP Rifle",
    "burst": "3",
    "ammo": "AP",
    "damage": "13",
    "short_dist": "8",
    "short_mod": "0",
    "medium_dist": "16",
    "medium_mod": "3",
    "long_dist": "32",
    "long_mod": "-3",
    "max_dist": "48",
    "max_mod": "-6",
    "cc": "No",
    "template": "No",
    "suppressive": "Yes",
    "note": ""
  },
  {
    "name": "Breaker Rifle",
    "burst": "3",
    "ammo": "Breaker",
    "damage": "13",
    "short_dist": "8",
    "short_mod": "0",
    "medium_dist": "16",
    "medium_mod": "3",
    "long_dist": "32",
    "long_mod": "-3",
    "max_dist": "48",
    "max_mod": "-6",
    "cc": "No",
    "template": "No",
    "suppressive": "Yes",
    "note": ""
  },
  {
    "name": "Breaker Combi Rifle",
    "burst": "3",
    "ammo": "Breaker",
    "damage": "13",
    "short_dist": "8",
    "short_mod": "3",
    "medium_dist": "16",
    "medium_mod": "3",
    "long_dist": "32",
    "long_mod": "-3",
    "max_dist": "48",
    "max_mod": "-6",
    "cc": "No",
    "template": "No",
    "suppressive": "Yes",
    "note": ""
  },
  {
    "name": "AP Sniper Rifle",
    "burst": "2",
    "ammo": "AP",
    "damage": "15",
    "short_dist": "8",
    "short_mod": "-3",
    "medium_dist": "16",
    "medium_mod": "0",
    "long_dist": "48",
    "long_mod": "3",
    "max_dist": "96",
    "max_mod": "-3",
    "cc": "No",
    "template": "No",
    "note": ""
  },
  {
    "name": "K1 Sniper Rifle",
    "burst": "2",
    "ammo": "K1",
    "damage": "12",
    "short_dist": "8",
    "short_mod": "-3",
    "medium_dist": "16",
    "medium_mod": "0",
    "long_dist": "48",
    "long_mod": "3",
    "max_dist": "96",
    "max_mod": "-3",
    "cc": "No",
    "template": "No",
    "note": "Anti-materiel"
  },
  {
    "name": "Adhesive Launcher",
    "burst": "1",
    "ammo": "Adhesive",
    "damage": "--",
    "short_dist": "8",
    "short_mod": "0",
    "medium_dist": "16",
    "medium_mod": "3",
    "long_dist": "32",
    "long_mod": "-3",
    "max_dist": "48",
    "max_mod": "-6",
    "cc": "No",
    "template": "No",
    "note": "Non-lethal"
  },
  {
    "name": "Akrylat-Kanone",
    "burst": "1",
    "ammo": "Adhesive",
    "damage": "--",
    "short_dist": "8",
    "short_mod": "-3",
    "medium_dist": "16",
    "medium_mod": "0",
    "long_dist": "32",
    "long_mod": "3",
    "max_dist": "48",
    "max_mod": "-3",
    "cc": "No",
    "template": "No",
    "uses": "2",
    "note": "Non-lethal"
  },
  {
    "name": "Antipersonnel Mines",
    "burst": "1",
    "ammo": "Shock",
    "damage": "13",
    "short_dist": "--",
    "short_mod": "--",
    "medium_dist": "--",
    "medium_mod": "--",
    "long_dist": "--",
    "long_mod": "--",
    "max_dist": "--",
    "max_mod": "--",
    "cc": "No",
    "template": "Direct Template (Small Teardrop)",
    "uses": "3",
    "note": "Concealed, Deployable, Intuitive Attack"
  },
  {
    "name": "Drop Bears",
    "mode": "(Deployed)",
    "alt_profile": "Drop Bears (Thrown)",
    "burst": "1",
    "ammo": "Shock",
    "damage": "13",
    "short_dist": "--",
    "short_mod": "--",
    "medium_dist": "--",
    "medium_mod": "--",
    "long_dist": "--",
    "long_mod": "--",
    "max_dist": "--",
    "max_mod": "--",
    "cc": "No",
    "template": "Direct Template (Small Teardrop)",
    "uses": "3",
    "note": "Deployable, Intuitive Attack"
  },
  {
    "name": "Drop Bears (Thrown)",
    "burst": "1",
    "ammo": "--",
    "damage": "--",
    "short_dist": "8",
    "short_mod": "3",
    "medium_dist": "16",
    "medium_mod": "-3",
    "long_dist": "--",
    "long_mod": "--",
    "max_dist": "--",
    "max_mod": "--",
    "attr": "PH",
    "cc": "No",
    "template": "Direct Template (Small Teardrop)",
    "uses": "3",
    "note": "Speculative Fire, Targetless"
  },
  {
    "name": "Antipersonnel Mines (1)",
    "burst": "1",
    "ammo": "Shock",
    "damage": "13",
    "short_dist": "--",
    "short_mod": "--",
    "medium_dist": "--",
    "medium_mod": "--",
    "long_dist": "--",
    "long_mod": "--",
    "max_dist": "--",
    "max_mod": "--",
    "cc": "No",
    "template": "Circular/Small Teardrop",
    "uses": "1",
    "note": ""
  },
  {
    "name": "CrazyKoalas",
    "burst": "1",
    "ammo": "Shock",
    "damage": "15",
    "short_dist": "--",
    "short_mod": "--",
    "medium_dist": "--",
    "medium_mod": "--",
    "long_dist": "--",
    "long_mod": "--",
    "max_dist": "--",
    "max_mod": "--",
    "cc": "No",
    "template": "No",
    "uses": "2",
    "note": "Deployable, Non-Lootable"
  },
  {
    "name": "MadTraps",
    "burst": "1",
    "ammo": "Adhesive",
    "damage": "--",
    "short_dist": "--",
    "short_mod": "--",
    "medium_dist": "--",
    "medium_mod": "--",
    "long_dist": "--",
    "long_mod": "--",
    "max_dist": "--",
    "max_mod": "--",
    "cc": "No",
    "template": "No",
    "note": "Deployable, Non-Lootable"
  },
  {
    "name": "SymbioBugs",
    "burst": "1",
    "ammo": "Pheromonic",
    "damage": "13",
    "short_dist": "--",
    "short_mod": "--",
    "medium_dist": "--",
    "medium_mod": "--",
    "long_dist": "--",
    "long_mod": "--",
    "max_dist": "--",
    "max_mod": "--",
    "cc": "No",
    "template": "No",
    "note": "Deployable, Non-Lootable"
  },
  {
    "name": "Assault Pistol",
    "alt_profile": "Assault Pistol (CC Mode)",
    "burst": "4",
    "ammo": "N",
    "damage": "13",
    "short_dist": "8",
    "short_mod": "3",
    "medium_dist": "16",
    "medium_mod": "0",
    "long_dist": "24",
    "long_mod": "-6",
    "max_dist": "--",
    "max_mod": "--",
    "cc": "No",
    "template": "No",
    "note": ""
  },
  {
    "name": "Assault Pistol (CC Mode)",
    "burst": "1",
    "ammo": "N",
    "damage": "13",
    "short_dist": "--",
    "short_mod": "--",
    "medium_dist": "--",
    "medium_mod": "--",
    "long_dist": "--",
    "long_mod": "--",
    "max_dist": "--",
    "max_mod": "--",
    "cc": "Yes",
    "template": "No",
    "note": ""
  },
  {
    "name": "Autocannon",
    "burst": "2",
    "ammo": "AP+EXP",
    "damage": "15",
    "short_dist": "8",
    "short_mod": "-3",
    "medium_dist": "16",
    "medium_mod": "0",
    "long_dist": "32",
    "long_mod": "3",
    "max_dist": "48",
    "max_mod": "-3",
    "cc": "No",
    "template": "No",
    "note": "Anti-materiel"
  },
  {
    "name": "Blitzen",
    "burst": "1",
    "ammo": "E/M2",
    "damage": "14",
    "short_dist": "8",
    "short_mod": "-3",
    "medium_dist": "16",
    "medium_mod": "0",
    "long_dist": "32",
    "long_mod": "3",
    "max_dist": "48",
    "max_mod": "-3",
    "cc": "No",
    "template": "No",
    "uses": "2",
    "note": ""
  },
  {
    "name": "Vulkan Shotgun",
    "mode": "(Blast Mode)",
    "alt_profile": "Vulkan Shotgun (AP Mode)",
    "burst": "2",
    "ammo": "Fire",
    "damage": "14",
    "short_dist": "8",
    "short_mod": "6",
    "medium_dist": "16",
    "medium_mod": "0",
    "long_dist": "24",
    "long_mod": "-3",
    "max_dist": "--",
    "max_mod": "--",
    "cc": "No",
    "template": "Impact Template (Small Teardrop)",
    "note": ""
  },
  {
    "name": "Vulkan Shotgun (AP Mode)",
    "burst": "2",
    "ammo": "AP",
    "damage": "14",
    "short_dist": "8",
    "short_mod": "6",
    "medium_dist": "16",
    "medium_mod": "0",
    "long_dist": "24",
    "long_mod": "-3",
    "max_dist": "--",
    "max_mod": "--",
    "cc": "No",
    "template": "No",
    "note": ""
  },
  {
    "name": "Boarding Shotgun",
    "mode": "(Blast Mode)",
    "alt_profile": "Boarding Shotgun (AP Mode)",
    "burst": "2",
    "ammo": "N",
    "damage": "14",
    "short_dist": "8",
    "short_mod": "6",
    "medium_dist": "16",
    "medium_mod": "0",
    "long_dist": "24",
    "long_mod": "-3",
    "max_dist": "--",
    "max_mod": "--",
    "cc": "No",
    "template": "Impact Template (Small Teardrop)",
    "note": ""
  },
  {
    "name": "Boarding Shotgun (AP Mode)",
    "burst": "2",
    "ammo": "AP",
    "damage": "14",
    "short_dist": "8",
    "short_mod": "6",
    "medium_dist": "16",
    "medium_mod": "0",
    "long_dist": "24",
    "long_mod": "-3",
    "max_dist": "--",
    "max_mod": "--",
    "cc": "No",
    "template": "No",
    "note": ""
  },
  {
    "name": "CCW",
    "burst": "1",
    "ammo": "N",
    "damage": "PH",
    "short_dist": "--",
    "short_mod": "--",
    "medium_dist": "--",
    "medium_mod": "--",
    "long_dist": "--",
    "long_mod": "--",
    "max_dist": "--",
    "max_mod": "--",
    "cc": "Yes",
    "template": "No",
    "note": ""
  },
  {
    "name": "Chain Rifle",
    "burst": "1",
    "ammo": "N",
    "damage": "13",
    "short_dist": "--",
    "short_mod": "--",
    "medium_dist": "--",
    "medium_mod": "--",
    "long_dist": "--",
    "long_mod": "--",
    "max_dist": "--",
    "max_mod": "--",
    "cc": "No",
    "template": "Direct Template (Large Teardrop)",
    "note": "Intuitive Attack"
  },
  {
    "name": "Combi Rifle",
    "burst": "3",
    "ammo": "N",
    "damage": "13",
    "short_dist": "8",
    "short_mod": "3",
    "medium_dist": "16",
    "medium_mod": "3",
    "long_dist": "32",
    "long_mod": "-3",
    "max_dist": "48",
    "max_mod": "-6",
    "cc": "No",
    "template": "No",
    "suppressive": "Yes",
    "note": ""
  },
  {
    "name": "K1 Combi Rifle",
    "burst": "3",
    "ammo": "K1",
    "damage": "12",
    "short_dist": "8",
    "short_mod": "3",
    "medium_dist": "16",
    "medium_mod": "3",
    "long_dist": "32",
    "long_mod": "-3",
    "max_dist": "48",
    "max_mod": "-6",
    "cc": "No",
    "template": "No",
    "suppressive": "Yes",
    "note": "Anti-materiel"
  },
  {
    "name": "Contender",
    "burst": "1",
    "ammo": "DA",
    "damage": "13",
    "short_dist": "8",
    "short_mod": "0",
    "medium_dist": "16",
    "medium_mod": "3",
    "long_dist": "32",
    "long_mod": "-3",
    "max_dist": "48",
    "max_mod": "-6",
    "cc": "No",
    "template": "No",
    "note": "Anti-materiel"
  },
  {
    "name": "D-Charges",
    "mode": "(Deployable Mode)",
    "alt_profile": "D-Charges (CC Mode)",
    "burst": "1",
    "ammo": "AP+EXP",
    "damage": "14",
    "short_dist": "--",
    "short_mod": "--",
    "medium_dist": "--",
    "medium_mod": "--",
    "long_dist": "--",
    "long_mod": "--",
    "max_dist": "--",
    "max_mod": "--",
    "cc": "No",
    "template": "No",
    "uses": "3",
    "note": "Anti-materiel, Deployable"
  },
  {
    "name": "D-Charges (CC Mode)",
    "burst": "1",
    "ammo": "AP+EXP",
    "damage": "14",
    "short_dist": "--",
    "short_mod": "--",
    "medium_dist": "--",
    "medium_mod": "--",
    "long_dist": "--",
    "long_mod": "--",
    "max_dist": "--",
    "max_mod": "--",
    "cc": "Yes",
    "template": "No",
    "uses": "3",
    "note": "CC(-3)"
  },
  {
    "name": "D.E.P.",
    "burst": "1",
    "ammo": "AP+EXP",
    "damage": "14",
    "short_dist": "8",
    "short_mod": "0",
    "medium_dist": "16",
    "medium_mod": "3",
    "long_dist": "32",
    "long_mod": "-3",
    "max_dist": "48",
    "max_mod": "-6",
    "cc": "No",
    "template": "No",
    "uses": "1",
    "note": "Anti-materiel"
  },
  {
    "name": "DA CCW",
    "burst": "1",
    "ammo": "DA",
    "damage": "PH",
    "short_dist": "--",
    "short_mod": "--",
    "medium_dist": "--",
    "medium_mod": "--",
    "long_dist": "--",
    "long_mod": "--",
    "max_dist": "--",
    "max_mod": "--",
    "cc": "Yes",
    "template": "No",
    "note": "Anti-materiel"
  },
  {
    "name": "Discover",
    "burst": "1",
    "ammo": "--",
    "damage": "--",
    "short_dist": "8",
    "short_mod": "3",
    "medium_dist": "32",
    "medium_mod": "0",
    "long_dist": "48",
    "long_mod": "-3",
    "max_dist": "96",
    "max_mod": "-6",
    "attr": "WIP",
    "cc": "No",
    "template": "No",
    "note": ""
  },
  {
    "name": "E/M CCW",
    "burst": "1",
    "ammo": "N+E/M",
    "damage": "PH",
    "short_dist": "--",
    "short_mod": "--",
    "medium_dist": "--",
    "medium_mod": "--",
    "long_dist": "--",
    "long_mod": "--",
    "max_dist": "--",
    "max_mod": "--",
    "cc": "Yes",
    "template": "No",
    "note": ""
  },
  {
    "name": "E/M2 CCW",
    "burst": "1",
    "ammo": "N+E/M2",
    "damage": "PH",
    "short_dist": "--",
    "short_mod": "--",
    "medium_dist": "--",
    "medium_mod": "--",
    "long_dist": "--",
    "long_mod": "--",
    "max_dist": "--",
    "max_mod": "--",
    "cc": "Yes",
    "template": "No",
    "note": ""
  },
  {
    "name": "E/M Light Grenade Launcher",
    "burst": "1",
    "ammo": "E/M",
    "damage": "13",
    "short_dist": "8",
    "short_mod": "0",
    "medium_dist": "16",
    "medium_mod": "3",
    "long_dist": "24",
    "long_mod": "-3",
    "max_dist": "48",
    "max_mod": "-6",
    "cc": "No",
    "template": "Impact Template (Circular)",
    "note": "Speculative Fire"
  },
  {
    "name": "Light Nimbus Grenade Launcher",
    "burst": "1",
    "ammo": "Nimbus",
    "damage": "13",
    "short_dist": "8",
    "short_mod": "0",
    "medium_dist": "16",
    "medium_mod": "3",
    "long_dist": "24",
    "long_mod": "-3",
    "max_dist": "48",
    "max_mod": "-6",
    "cc": "No",
    "template": "Impact Template (Circular)",
    "note": "Non-Lethal, Reflective, Speculative Fire, Targetless"
  },
  {
    "name": "E/Marat",
    "burst": "1",
    "ammo": "E/M",
    "damage": "13",
    "short_dist": "--",
    "short_mod": "--",
    "medium_dist": "--",
    "medium_mod": "--",
    "long_dist": "--",
    "long_mod": "--",
    "max_dist": "--",
    "max_mod": "--",
    "cc": "No",
    "template": "Direct Template (Large Teardrop)",
    "note": "Intuitive Attack"
  },
  {
    "name": "E/Mauler",
    "burst": "1",
    "ammo": "E/M",
    "damage": "13",
    "short_dist": "--",
    "short_mod": "--",
    "medium_dist": "--",
    "medium_mod": "--",
    "long_dist": "--",
    "long_mod": "--",
    "max_dist": "--",
    "max_mod": "--",
    "cc": "No",
    "template": "Direct Template (Small Teardrop)",
    "uses": "3",
    "note": "Concealed, Deployable, Intuitive Attack"
  },
  {
    "name": "E/Mitter",
    "burst": "1",
    "ammo": "E/M2",
    "damage": "13",
    "short_dist": "8",
    "short_mod": "0",
    "medium_dist": "16",
    "medium_mod": "3",
    "long_dist": "32",
    "long_mod": "-3",
    "max_dist": "48",
    "max_mod": "-6",
    "cc": "No",
    "template": "No",
    "note": ""
  },
  {
    "name": "EXP CCW",
    "burst": "1",
    "ammo": "EXP",
    "damage": "PH",
    "short_dist": "--",
    "short_mod": "--",
    "medium_dist": "--",
    "medium_mod": "--",
    "long_dist": "--",
    "long_mod": "--",
    "max_dist": "--",
    "max_mod": "--",
    "cc": "Yes",
    "template": "No",
    "note": "Anti-materiel"
  },
  {
    "name": "Electric Pulse",
    "burst": "--",
    "ammo": "--",
    "damage": "--",
    "short_dist": "--",
    "short_mod": "--",
    "medium_dist": "--",
    "medium_mod": "--",
    "long_dist": "--",
    "long_mod": "--",
    "max_dist": "--",
    "max_mod": "--",
    "cc": "Yes",
    "template": "No",
    "note": "2 Turns, Automatic (7), State: IMM-2, Non-Lootable, Non-Lethal"
  },
  {
    "name": "Feuerbach",
    "mode": "(Burst Mode)",
    "alt_profile": "Feuerbach (Explosive Mode)",
    "burst": "2",
    "ammo": "AP+DA",
    "damage": "14",
    "short_dist": "8",
    "short_mod": "-3",
    "medium_dist": "16",
    "medium_mod": "0",
    "long_dist": "32",
    "long_mod": "3",
    "max_dist": "48",
    "max_mod": "0",
    "cc": "No",
    "template": "No",
    "note": "Anti-materiel"
  },
  {
    "name": "Feuerbach (Explosive Mode)",
    "burst": "1",
    "ammo": "EXP",
    "damage": "14",
    "short_dist": "8",
    "short_mod": "-3",
    "medium_dist": "16",
    "medium_mod": "0",
    "long_dist": "32",
    "long_mod": "3",
    "max_dist": "48",
    "max_mod": "0",
    "cc": "No",
    "template": "No",
    "note": "Anti-materiel"
  },
  {
    "name": "Flash Grenades",
    "burst": "1",
    "ammo": "Flash",
    "damage": "13",
    "short_dist": "8",
    "short_mod": "3",
    "medium_dist": "16",
    "medium_mod": "-3",
    "long_dist": "--",
    "long_mod": "--",
    "max_dist": "--",
    "max_mod": "--",
    "attr": "PH",
    "cc": "No",
    "template": "Impact Template (Circular)",
    "note": "Speculative Fire"
  },
  {
    "name": "Flash Light Grenade Launcher",
    "burst": "1",
    "ammo": "Flash",
    "damage": "13",
    "short_dist": "8",
    "short_mod": "0",
    "medium_dist": "16",
    "medium_mod": "3",
    "long_dist": "24",
    "long_mod": "-3",
    "max_dist": "48",
    "max_mod": "-6",
    "cc": "No",
    "template": "Impact Template (Circular)",
    "note": "Speculative Fire"
  },
  {
    "name": "Flash Pulse",
    "burst": "1",
    "ammo": "Flash",
    "damage": "13",
    "short_dist": "8",
    "short_mod": "0",
    "medium_dist": "24",
    "medium_mod": "3",
    "long_dist": "48",
    "long_mod": "-3",
    "max_dist": "96",
    "max_mod": "-6",
    "attr": "WIP",
    "cc": "No",
    "template": "No",
    "note": "Non-Lootable"
  },
  {
    "name": "Forward Observer",
    "burst": "2",
    "ammo": "--",
    "damage": "marking",
    "short_dist": "24",
    "short_mod": "0",
    "medium_dist": "48",
    "medium_mod": "-3",
    "long_dist": "96",
    "long_mod": "-6",
    "max_dist": "--",
    "max_mod": "--",
    "attr": "WIP",
    "cc": "No",
    "template": "No",
    "note": "Non-Lethal, Non-Lootable"
  },
  {
    "name": "Deactivator",
    "burst": "1",
    "ammo": "--",
    "damage": "--",
    "short_dist": "8",
    "short_mod": "6",
    "medium_dist": "16",
    "medium_mod": "3",
    "long_dist": "24",
    "long_mod": "-6",
    "max_dist": "--",
    "max_mod": "--",
    "attr": "WIP",
    "cc": "No",
    "template": "No",
    "note": "BS Attack, Non-Lootable"
  },
  {
    "name": "Swarm Grenades",
    "burst": "1",
    "ammo": "Swarm",
    "damage": "13",
    "short_dist": "8",
    "short_mod": "3",
    "medium_dist": "16",
    "medium_mod": "-3",
    "long_dist": "--",
    "long_mod": "--",
    "max_dist": "--",
    "max_mod": "--",
    "attr": "PH",
    "cc": "No",
    "template": "Impact Template (Circular)",
    "note": "Speculative Fire"
  },
  {
    "name": "Grenades",
    "burst": "1",
    "ammo": "N",
    "damage": "13",
    "short_dist": "8",
    "short_mod": "3",
    "medium_dist": "16",
    "medium_mod": "-3",
    "long_dist": "--",
    "long_mod": "--",
    "max_dist": "--",
    "max_mod": "--",
    "attr": "PH",
    "cc": "No",
    "template": "Impact Template (Circular)",
    "note": "Speculative Fire"
  },
  {
    "name": "E/M Grenades",
    "burst": "1",
    "ammo": "E/M",
    "damage": "13",
    "short_dist": "8",
    "short_mod": "3",
    "medium_dist": "16",
    "medium_mod": "-3",
    "long_dist": "--",
    "long_mod": "--",
    "max_dist": "--",
    "max_mod": "--",
    "attr": "PH",
    "cc": "No",
    "template": "Impact Template (Circular)",
    "note": "Speculative Fire"
  },
  {
    "name": "Nimbus Grenades",
    "burst": "1",
    "ammo": "Nimbus",
    "damage": "--",
    "short_dist": "8",
    "short_mod": "3",
    "medium_dist": "16",
    "medium_mod": "-3",
    "long_dist": "--",
    "long_mod": "--",
    "max_dist": "--",
    "max_mod": "--",
    "attr": "PH",
    "cc": "No",
    "template": "Impact Template (Circular)",
    "note": "Non-Lethal, Reflective, Speculative Fire, Targetless"
  },
  {
    "name": "Nimbus Plus Grenades",
    "burst": "1",
    "ammo": "Nimbus Plus",
    "damage": "--",
    "short_dist": "8",
    "short_mod": "3",
    "medium_dist": "16",
    "medium_mod": "-3",
    "long_dist": "--",
    "long_mod": "--",
    "max_dist": "--",
    "max_mod": "--",
    "attr": "PH",
    "cc": "No",
    "template": "Impact Template (Circular)",
    "note": "Non-Lethal, Reflective, Speculative Fire, Targetless"
  },
  {
    "name": "Smart MULTI Sniper Rifle",
    "mode": "(AP Mode)",
    "alt_profile": "Smart MULTI Sniper Rifle (Anti-materiel Mode)",
    "burst": "2",
    "ammo": "AP",
    "damage": "15",
    "short_dist": "8",
    "short_mod": "-3",
    "medium_dist": "16",
    "medium_mod": "0",
    "long_dist": "48",
    "long_mod": "3",
    "max_dist": "96",
    "max_mod": "-3",
    "cc": "No",
    "template": "No",
    "note": "Medium MULTI"
  },
  {
    "name": "Smart MULTI Sniper Rifle (Anti-materiel Mode)",
    "alt_profile": "Smart MULTI Sniper Rifle (Stun Mode)",
    "burst": "2",
    "ammo": "DA",
    "damage": "15",
    "short_dist": "8",
    "short_mod": "-3",
    "medium_dist": "16",
    "medium_mod": "0",
    "long_dist": "48",
    "long_mod": "3",
    "max_dist": "96",
    "max_mod": "-3",
    "cc": "No",
    "template": "No",
    "note": "Anti-materiel, Medium MULTI"
  },
  {
    "name": "Smart MULTI Sniper Rifle (Stun Mode)",
    "alt_profile": "Smart MULTI Sniper Rifle (Guided Mode)",
    "burst": "1",
    "ammo": "Stun",
    "damage": "15",
    "short_dist": "8",
    "short_mod": "-3",
    "medium_dist": "16",
    "medium_mod": "0",
    "long_dist": "48",
    "long_mod": "3",
    "max_dist": "96",
    "max_mod": "-3",
    "cc": "No",
    "template": "No",
    "note": "Medium MULTI, Non-Lethal"
  },
  {
    "name": "Smart MULTI Sniper Rifle (Guided Mode)",
    "burst": "1",
    "ammo": "DA",
    "damage": "13",
    "short_dist": "--",
    "short_mod": "--",
    "medium_dist": "--",
    "medium_mod": "--",
    "long_dist": "--",
    "long_mod": "--",
    "max_dist": "--",
    "max_mod": "--",
    "cc": "No",
    "template": "Impact Template (Circular)",
    "note": "Anti-materiel, Guided"
  },
  {
    "name": "Smart Missile Launcher",
    "mode": "(Auto-Aim Mode)",
    "alt_profile": "Smart Missile Launcher (Guided Mode)",
    "burst": "1",
    "ammo": "AP+DA",
    "damage": "14",
    "short_dist": "8",
    "short_mod": "0",
    "medium_dist": "24",
    "medium_mod": "0",
    "long_dist": "40",
    "long_mod": "3",
    "max_dist": "96",
    "max_mod": "0",
    "cc": "No",
    "template": "Impact Template (Circular)",
    "note": "Anti-materiel"
  },
  {
    "name": "Smart Missile Launcher (Guided Mode)",
    "burst": "1",
    "ammo": "AP+DA",
    "damage": "14",
    "short_dist": "--",
    "short_mod": "--",
    "medium_dist": "--",
    "medium_mod": "--",
    "long_dist": "--",
    "long_mod": "--",
    "max_dist": "--",
    "max_mod": "--",
    "cc": "No",
    "template": "Impact Template (Circular)",
    "note": "Anti-materiel, Guided"
  },
  {
    "name": "HMC",
    "mode": "(Burst Mode)",
    "alt_profile": "HMC (Anti-Materiel Mode)",
    "burst": "5",
    "ammo": "AP/Shock",
    "damage": "15",
    "short_dist": "8",
    "short_mod": "-3",
    "medium_dist": "16",
    "medium_mod": "0",
    "long_dist": "32",
    "long_mod": "3",
    "max_dist": "48",
    "max_mod": "0",
    "cc": "No",
    "template": "No",
    "suppressive": "Yes",
    "note": "Light MULTI, Non-Lootable"
  },
  {
    "name": "HMC (Anti-Materiel Mode)",
    "alt_profile": "HMC (Stun Mode)",
    "burst": "1",
    "ammo": "DA",
    "damage": "15",
    "short_dist": "8",
    "short_mod": "-3",
    "medium_dist": "16",
    "medium_mod": "0",
    "long_dist": "32",
    "long_mod": "3",
    "max_dist": "48",
    "max_mod": "0",
    "cc": "No",
    "template": "No",
    "note": "Anti-materiel, Light MULTI, Non-Lootable"
  },
  {
    "name": "HMC (Stun Mode)",
    "burst": "1",
    "ammo": "Stun",
    "damage": "15",
    "short_dist": "8",
    "short_mod": "-3",
    "medium_dist": "16",
    "medium_mod": "0",
    "long_dist": "32",
    "long_mod": "3",
    "max_dist": "48",
    "max_mod": "0",
    "cc": "No",
    "template": "No",
    "note": "Light MULTI, Non-Lethal, Non-Lootable"
  },
  {
    "name": "HMG",
    "burst": "4",
    "ammo": "N",
    "damage": "15",
    "short_dist": "8",
    "short_mod": "-3",
    "medium_dist": "16",
    "medium_mod": "0",
    "long_dist": "32",
    "long_mod": "3",
    "max_dist": "48",
    "max_mod": "-3",
    "cc": "No",
    "template": "No",
    "suppressive": "Yes",
    "note": ""
  },
  {
    "name": "Heavy Flamethrower",
    "burst": "1",
    "ammo": "FIRE",
    "damage": "14",
    "short_dist": "--",
    "short_mod": "--",
    "medium_dist": "--",
    "medium_mod": "--",
    "long_dist": "--",
    "long_mod": "--",
    "max_dist": "--",
    "max_mod": "--",
    "cc": "No",
    "template": "Direct Template (Large Teardrop)",
    "note": "Intuitive Attack"
  },
  {
    "name": "Heavy Grenade Launcher",
    "burst": "1",
    "ammo": "N",
    "damage": "14",
    "short_dist": "8",
    "short_mod": "-3",
    "medium_dist": "32",
    "medium_mod": "0",
    "long_dist": "48",
    "long_mod": "-3",
    "max_dist": "96",
    "max_mod": "-6",
    "cc": "No",
    "template": "Impact Template (Circular)",
    "note": "Non-Lootable, Speculative Fire"
  },
  {
    "name": "Smart Heavy Rocket Launcher",
    "mode": "(Blast Mode)",
    "alt_profile": "Smart Heavy Rocket Launcher (Guided Mode)",
    "burst": "2",
    "ammo": "FIRE",
    "damage": "14",
    "short_dist": "8",
    "short_mod": "-3",
    "medium_dist": "16",
    "medium_mod": "0",
    "long_dist": "32",
    "long_mod": "3",
    "max_dist": "48",
    "max_mod": "-3",
    "cc": "No",
    "template": "Impact Template (Circular)",
    "note": ""
  },
  {
    "name": "Smart Heavy Rocket Launcher (Guided Mode)",
    "burst": "1",
    "ammo": "FIRE",
    "damage": "14",
    "short_dist": "--",
    "short_mod": "--",
    "medium_dist": "--",
    "medium_mod": "--",
    "long_dist": "--",
    "long_mod": "--",
    "max_dist": "--",
    "max_mod": "--",
    "cc": "No",
    "template": "Impact Template (Circular)",
    "note": "Guided"
  },
  {
    "name": "Heavy Rocket Launcher",
    "mode": "(Blast Mode)",
    "alt_profile": "Heavy Rocket Launcher (Hit Mode)",
    "burst": "2",
    "ammo": "FIRE",
    "damage": "14",
    "short_dist": "8",
    "short_mod": "-3",
    "medium_dist": "16",
    "medium_mod": "0",
    "long_dist": "32",
    "long_mod": "3",
    "max_dist": "48",
    "max_mod": "-3",
    "cc": "No",
    "template": "Circular",
    "note": ""
  },
  {
    "name": "Heavy Rocket Launcher (Hit Mode)",
    "burst": "2",
    "ammo": "FIRE",
    "damage": "15",
    "short_dist": "8",
    "short_mod": "-3",
    "medium_dist": "16",
    "medium_mod": "0",
    "long_dist": "32",
    "long_mod": "3",
    "max_dist": "48",
    "max_mod": "-3",
    "cc": "No",
    "template": "No",
    "note": ""
  },
  {
    "name": "Light Rocket Launcher",
    "mode": "(Blast Mode)",
    "alt_profile": "Light Rocket Launcher (Hit Mode)",
    "burst": "2",
    "ammo": "FIRE",
    "damage": "13",
    "short_dist": "8",
    "short_mod": "0",
    "medium_dist": "24",
    "medium_mod": "3",
    "long_dist": "32",
    "long_mod": "-3",
    "max_dist": "48",
    "max_mod": "-6",
    "cc": "No",
    "template": "Impact Template (Circular)",
    "note": ""
  },
  {
    "name": "Light Rocket Launcher (Hit Mode)",
    "burst": "2",
    "ammo": "FIRE",
    "damage": "14",
    "short_dist": "8",
    "short_mod": "0",
    "medium_dist": "24",
    "medium_mod": "3",
    "long_dist": "32",
    "long_mod": "-3",
    "max_dist": "48",
    "max_mod": "-6",
    "cc": "No",
    "template": "",
    "note": ""
  },
  {
    "name": "Heavy Shotgun",
    "mode": "(Blast Mode)",
    "alt_profile": "Heavy Shotgun (AP Mode)",
    "burst": "2",
    "ammo": "N",
    "damage": "15",
    "short_dist": "8",
    "short_mod": "6",
    "medium_dist": "16",
    "medium_mod": "0",
    "long_dist": "24",
    "long_mod": "-3",
    "max_dist": "--",
    "max_mod": "--",
    "cc": "No",
    "template": "Impact Template (Small Teardrop)",
    "note": ""
  },
  {
    "name": "Heavy Shotgun (AP Mode)",
    "burst": "2",
    "ammo": "AP",
    "damage": "15",
    "short_dist": "8",
    "short_mod": "6",
    "medium_dist": "16",
    "medium_mod": "0",
    "long_dist": "24",
    "long_mod": "-3",
    "max_dist": "--",
    "max_mod": "--",
    "cc": "No",
    "template": "No",
    "note": ""
  },
  {
    "name": "Katyusha MRL",
    "mode": "(Blast Mode)",
    "alt_profile": "Katyusha MRL (Guided Mode)",
    "burst": "1",
    "ammo": "DA",
    "damage": "14",
    "short_dist": "8",
    "short_mod": "0",
    "medium_dist": "16",
    "medium_mod": "3",
    "long_dist": "40",
    "long_mod": "-3",
    "max_dist": "48",
    "max_mod": "-6",
    "cc": "No",
    "template": "Impact Template (Circular)",
    "note": "Anti-materiel, Non-Lootable, Speculative Fire"
  },
  {
    "name": "Katyusha MRL (Guided Mode)",
    "burst": "1",
    "ammo": "DA",
    "damage": "14",
    "short_dist": "--",
    "short_mod": "--",
    "medium_dist": "--",
    "medium_mod": "--",
    "long_dist": "--",
    "long_mod": "--",
    "max_dist": "--",
    "max_mod": "--",
    "cc": "No",
    "template": "Impact Template (Circular)",
    "note": "Anti-materiel, Guided, Non-Lootable"
  },
  {
    "name": "Knife",
    "burst": "1",
    "ammo": "Shock",
    "damage": "PH-1",
    "short_dist": "--",
    "short_mod": "--",
    "medium_dist": "--",
    "medium_mod": "--",
    "long_dist": "--",
    "long_mod": "--",
    "max_dist": "--",
    "max_mod": "--",
    "cc": "Yes",
    "template": "No",
    "note": "Silent"
  },
  {
    "name": "Bare-Handed",
    "burst": "1",
    "ammo": "N",
    "damage": "PH-2",
    "short_dist": "--",
    "short_mod": "--",
    "medium_dist": "--",
    "medium_mod": "--",
    "long_dist": "--",
    "long_mod": "--",
    "max_dist": "--",
    "max_mod": "--",
    "cc": "Yes",
    "template": "No",
    "note": ""
  },
  {
    "name": "Light Flamethrower",
    "burst": "1",
    "ammo": "FIRE",
    "damage": "13",
    "short_dist": "--",
    "short_mod": "--",
    "medium_dist": "--",
    "medium_mod": "--",
    "long_dist": "--",
    "long_mod": "--",
    "max_dist": "--",
    "max_mod": "--",
    "cc": "No",
    "template": "Direct Template (Small Teardrop)",
    "note": "Intuitive Attack"
  },
  {
    "name": "Light Grenade Launcher",
    "burst": "1",
    "ammo": "N",
    "damage": "13",
    "short_dist": "8",
    "short_mod": "0",
    "medium_dist": "16",
    "medium_mod": "3",
    "long_dist": "24",
    "long_mod": "-3",
    "max_dist": "48",
    "max_mod": "-6",
    "cc": "No",
    "template": "Impact Template (Circular)",
    "note": "Speculative Fire"
  },
  {
    "name": "Light Shotgun",
    "burst": "2",
    "ammo": "N",
    "damage": "13",
    "short_dist": "8",
    "short_mod": "6",
    "medium_dist": "16",
    "medium_mod": "0",
    "long_dist": "24",
    "long_mod": "-3",
    "max_dist": "--",
    "max_mod": "--",
    "cc": "No",
    "template": "Impact Template (Small Teardrop)",
    "note": ""
  },
  {
    "name": "MULTI HMG",
    "mode": "(Burst Mode)",
    "alt_profile": "MULTI HMG (Anti-Materiel Mode)",
    "burst": "4",
    "ammo": "AP/Shock",
    "damage": "15",
    "short_dist": "8",
    "short_mod": "-3",
    "medium_dist": "16",
    "medium_mod": "0",
    "long_dist": "32",
    "long_mod": "3",
    "max_dist": "48",
    "max_mod": "-3",
    "cc": "No",
    "template": "No",
    "suppressive": "Yes",
    "note": "Heavy MULTI, Non-Lootable"
  },
  {
    "name": "MULTI HMG (Anti-Materiel Mode)",
    "alt_profile": "MULTI HMG (Stun Mode)",
    "burst": "1",
    "ammo": "EXP",
    "damage": "15",
    "short_dist": "8",
    "short_mod": "-3",
    "medium_dist": "16",
    "medium_mod": "0",
    "long_dist": "32",
    "long_mod": "3",
    "max_dist": "48",
    "max_mod": "-3",
    "cc": "No",
    "template": "No",
    "note": "Anti-materiel, Heavy MULTI, Non-Lootable"
  },
  {
    "name": "MULTI HMG (Stun Mode)",
    "burst": "1",
    "ammo": "Stun",
    "damage": "15",
    "short_dist": "8",
    "short_mod": "-3",
    "medium_dist": "16",
    "medium_mod": "0",
    "long_dist": "32",
    "long_mod": "3",
    "max_dist": "48",
    "max_mod": "-3",
    "cc": "No",
    "template": "No",
    "note": "Heavy MULTI, Non-Lethal, Non-Lootable"
  },
  {
    "name": "MULTI Rifle",
    "mode": "(Burst Mode)",
    "alt_profile": "MULTI Rifle (Anti-Materiel Mode)",
    "burst": "3",
    "ammo": "AP/Shock",
    "damage": "13",
    "short_dist": "8",
    "short_mod": "3",
    "medium_dist": "16",
    "medium_mod": "3",
    "long_dist": "32",
    "long_mod": "-3",
    "max_dist": "48",
    "max_mod": "-6",
    "cc": "No",
    "template": "No",
    "suppressive": "Yes",
    "note": "Light MULTI"
  },
  {
    "name": "MULTI Rifle (Anti-Materiel Mode)",
    "alt_profile": "MULTI Rifle (Stun Mode)",
    "burst": "1",
    "ammo": "DA",
    "damage": "13",
    "short_dist": "8",
    "short_mod": "3",
    "medium_dist": "16",
    "medium_mod": "3",
    "long_dist": "32",
    "long_mod": "-3",
    "max_dist": "48",
    "max_mod": "-6",
    "cc": "No",
    "template": "No",
    "note": "Anti-materiel, Light MULTI"
  },
  {
    "name": "MULTI Rifle (Stun Mode)",
    "burst": "1",
    "ammo": "Stun",
    "damage": "14",
    "short_dist": "8",
    "short_mod": "3",
    "medium_dist": "16",
    "medium_mod": "3",
    "long_dist": "32",
    "long_mod": "-3",
    "max_dist": "48",
    "max_mod": "-6",
    "cc": "No",
    "template": "No",
    "note": "Light MULTI, Non-Lethal"
  },
  {
    "name": "MULTI Sniper Rifle",
    "mode": "(AP Mode)",
    "alt_profile": "MULTI Sniper Rifle (Anti-Materiel Mode)",
    "burst": "2",
    "ammo": "AP",
    "damage": "15",
    "short_dist": "8",
    "short_mod": "-3",
    "medium_dist": "16",
    "medium_mod": "0",
    "long_dist": "48",
    "long_mod": "3",
    "max_dist": "96",
    "max_mod": "-3",
    "cc": "No",
    "template": "No",
    "note": "Medium MULTI"
  },
  {
    "name": "MULTI Sniper Rifle (Anti-Materiel Mode)",
    "alt_profile": "MULTI Sniper Rifle (Stun Mode)",
    "burst": "2",
    "ammo": "DA",
    "damage": "15",
    "short_dist": "8",
    "short_mod": "-3",
    "medium_dist": "16",
    "medium_mod": "0",
    "long_dist": "48",
    "long_mod": "3",
    "max_dist": "96",
    "max_mod": "-3",
    "cc": "No",
    "template": "No",
    "note": "Anti-materiel, Medium MULTI"
  },
  {
    "name": "MULTI Sniper Rifle (Stun Mode)",
    "burst": "1",
    "ammo": "Stun",
    "damage": "15",
    "short_dist": "8",
    "short_mod": "-3",
    "medium_dist": "16",
    "medium_mod": "0",
    "long_dist": "48",
    "long_mod": "3",
    "max_dist": "96",
    "max_mod": "-3",
    "cc": "No",
    "template": "No",
    "note": "Medium MULTI, Non-Lethal"
  },
  {
    "name": "Pitcher",
    "burst": "1",
    "ammo": "Dep. Repeater",
    "damage": "--",
    "short_dist": "8",
    "short_mod": "0",
    "medium_dist": "16",
    "medium_mod": "3",
    "long_dist": "24",
    "long_mod": "-3",
    "max_dist": "48",
    "max_mod": "-6",
    "cc": "No",
    "template": "No",
    "uses": "2",
    "note": "Indiscriminate, Non-lethal, Speculative Fire, Targetless"
  },
  {
    "name": "Missile Launcher",
    "mode": "(Blast Mode)",
    "alt_profile": "Missile Launcher (Antitank Mode)",
    "burst": "1",
    "ammo": "EXP",
    "damage": "14",
    "short_dist": "8",
    "short_mod": "-3",
    "medium_dist": "24",
    "medium_mod": "0",
    "long_dist": "40",
    "long_mod": "3",
    "max_dist": "96",
    "max_mod": "-3",
    "cc": "No",
    "template": "Impact Template (Circular)",
    "note": "Anti-materiel"
  },
  {
    "name": "Missile Launcher (Antitank Mode)",
    "burst": "1",
    "ammo": "AP+EXP",
    "damage": "14",
    "short_dist": "8",
    "short_mod": "-3",
    "medium_dist": "24",
    "medium_mod": "0",
    "long_dist": "40",
    "long_mod": "3",
    "max_dist": "96",
    "max_mod": "-3",
    "cc": "No",
    "template": "No",
    "note": "Anti-materiel"
  },
  {
    "name": "Mk12",
    "burst": "3",
    "ammo": "N",
    "damage": "15",
    "short_dist": "8",
    "short_mod": "0",
    "medium_dist": "24",
    "medium_mod": "3",
    "long_dist": "32",
    "long_mod": "-3",
    "max_dist": "48",
    "max_mod": "-6",
    "cc": "No",
    "template": "No",
    "suppressive": "Yes",
    "note": ""
  },
  {
    "name": "Monofilament CCW",
    "burst": "1",
    "ammo": "Monofilament",
    "damage": "12",
    "short_dist": "--",
    "short_mod": "--",
    "medium_dist": "--",
    "medium_mod": "--",
    "long_dist": "--",
    "long_mod": "--",
    "max_dist": "--",
    "max_mod": "--",
    "cc": "Yes",
    "template": "No",
    "note": ""
  },
  {
    "name": "Monofilament Mines",
    "burst": "1",
    "ammo": "Monofilament",
    "damage": "12",
    "short_dist": "--",
    "short_mod": "--",
    "medium_dist": "--",
    "medium_mod": "--",
    "long_dist": "--",
    "long_mod": "--",
    "max_dist": "--",
    "max_mod": "--",
    "cc": "No",
    "template": "Direct Template (Small Teardrop)",
    "uses": "3",
    "note": "Concealed, Deployable, Intuitive Attack"
  },
  {
    "name": "Nanopulser",
    "burst": "1",
    "ammo": "Nanotech",
    "damage": "13",
    "short_dist": "--",
    "short_mod": "--",
    "medium_dist": "--",
    "medium_mod": "--",
    "long_dist": "--",
    "long_mod": "--",
    "max_dist": "--",
    "max_mod": "--",
    "cc": "No",
    "template": "Direct Template (Small Teardrop)",
    "note": "Intuitive Attack, Non-Lootable"
  },
  {
    "name": "Ojotnik",
    "burst": "2",
    "ammo": "AP",
    "damage": "14",
    "short_dist": "8",
    "short_mod": "-3",
    "medium_dist": "32",
    "medium_mod": "3",
    "long_dist": "40",
    "long_mod": "0",
    "max_dist": "96",
    "max_mod": "-6",
    "cc": "No",
    "template": "No",
    "note": ""
  },
  {
    "name": "Panzerfaust",
    "burst": "1",
    "ammo": "AP+EXP",
    "damage": "14",
    "short_dist": "8",
    "short_mod": "-3",
    "medium_dist": "16",
    "medium_mod": "0",
    "long_dist": "32",
    "long_mod": "3",
    "max_dist": "48",
    "max_mod": "-3",
    "cc": "No",
    "template": "No",
    "uses": "2",
    "note": "Anti-materiel"
  },
  {
    "name": "Stun Pistol",
    "alt_profile": "Stun Pistol (CC Mode)",
    "burst": "2",
    "ammo": "Stun",
    "damage": "11",
    "short_dist": "8",
    "short_mod": "3",
    "medium_dist": "16",
    "medium_mod": "0",
    "long_dist": "24",
    "long_mod": "-6",
    "max_dist": "--",
    "max_mod": "--",
    "cc": "No",
    "template": "No",
    "note": "Non-Lethal"
  },
  {
    "name": "Stun Pistol (CC Mode)",
    "burst": "1",
    "ammo": "Stun",
    "damage": "11",
    "short_dist": "--",
    "short_mod": "--",
    "medium_dist": "--",
    "medium_mod": "--",
    "long_dist": "--",
    "long_mod": "--",
    "max_dist": "--",
    "max_mod": "--",
    "cc": "Yes",
    "template": "No",
    "note": "Non-Lethal"
  },
  {
    "name": "Pistol",
    "alt_profile": "Pistol (CC Mode)",
    "burst": "2",
    "ammo": "N",
    "damage": "11",
    "short_dist": "8",
    "short_mod": "3",
    "medium_dist": "16",
    "medium_mod": "0",
    "long_dist": "24",
    "long_mod": "-6",
    "max_dist": "--",
    "max_mod": "--",
    "cc": "No",
    "template": "No",
    "note": ""
  },
  {
    "name": "Pistol (CC Mode)",
    "burst": "1",
    "ammo": "N",
    "damage": "11",
    "short_dist": "--",
    "short_mod": "--",
    "medium_dist": "--",
    "medium_mod": "--",
    "long_dist": "--",
    "long_mod": "--",
    "max_dist": "--",
    "max_mod": "--",
    "cc": "Yes",
    "template": "No",
    "note": ""
  },
  {
    "name": "Tactical Bow",
    "burst": "1",
    "ammo": "DA",
    "damage": "PH",
    "short_dist": "8",
    "short_mod": "3",
    "medium_dist": "16",
    "medium_mod": "0",
    "long_dist": "24",
    "long_mod": "-6",
    "max_dist": "--",
    "max_mod": "--",
    "cc": "Yes",
    "template": "No",
    "note": "Anti-materiel, Silent"
  },
  {
    "name": "Breaker Pistol",
    "alt_profile": "Breaker Pistol (CC Mode)",
    "burst": "2",
    "ammo": "Breaker",
    "damage": "12",
    "short_dist": "8",
    "short_mod": "3",
    "medium_dist": "16",
    "medium_mod": "0",
    "long_dist": "24",
    "long_mod": "-6",
    "max_dist": "--",
    "max_mod": "--",
    "cc": "No",
    "template": "No",
    "note": ""
  },
  {
    "name": "Breaker Pistol (CC Mode)",
    "burst": "1",
    "ammo": "Breaker",
    "damage": "12",
    "short_dist": "--",
    "short_mod": "--",
    "medium_dist": "--",
    "medium_mod": "--",
    "long_dist": "--",
    "long_mod": "--",
    "max_dist": "--",
    "max_mod": "--",
    "cc": "Yes",
    "template": "No",
    "note": ""
  },
  {
    "name": "Heavy Pistol",
    "alt_profile": "Heavy Pistol (CC Mode)",
    "burst": "2",
    "ammo": "Shock",
    "damage": "14",
    "short_dist": "8",
    "short_mod": "3",
    "medium_dist": "16",
    "medium_mod": "0",
    "long_dist": "24",
    "long_mod": "-6",
    "max_dist": "--",
    "max_mod": "--",
    "cc": "No",
    "template": "No",
    "note": ""
  },
  {
    "name": "Heavy Pistol (CC Mode)",
    "burst": "1",
    "ammo": "Shock",
    "damage": "14",
    "short_dist": "--",
    "short_mod": "--",
    "medium_dist": "--",
    "medium_mod": "--",
    "long_dist": "--",
    "long_mod": "--",
    "max_dist": "--",
    "max_mod": "--",
    "cc": "Yes",
    "template": "No",
    "note": ""
  },
  {
    "name": "AP Heavy Pistol",
    "alt_profile": "AP Heavy Pistol (CC Mode)",
    "burst": "2",
    "ammo": "AP",
    "damage": "14",
    "short_dist": "8",
    "short_mod": "3",
    "medium_dist": "16",
    "medium_mod": "0",
    "long_dist": "24",
    "long_mod": "-6",
    "max_dist": "--",
    "max_mod": "--",
    "cc": "No",
    "template": "No",
    "note": ""
  },
  {
    "name": "AP Heavy Pistol (CC Mode)",
    "burst": "1",
    "ammo": "AP",
    "damage": "14",
    "short_dist": "--",
    "short_mod": "--",
    "medium_dist": "--",
    "medium_mod": "--",
    "long_dist": "--",
    "long_mod": "--",
    "max_dist": "--",
    "max_mod": "--",
    "cc": "Yes",
    "template": "No",
    "note": ""
  },
  {
    "name": "Plasma Carbine",
    "mode": "(Blast Mode)",
    "alt_profile": "Plasma Carbine (Hit Mode)",
    "burst": "2",
    "ammo": "PLASMA",
    "damage": "13",
    "short_dist": "8",
    "short_mod": "3",
    "medium_dist": "16",
    "medium_mod": "3",
    "long_dist": "32",
    "long_mod": "-3",
    "max_dist": "40",
    "max_mod": "-6",
    "cc": "No",
    "template": "Impact Template (Small Teardrop)",
    "note": ""
  },
  {
    "name": "Plasma Carbine (Hit Mode)",
    "burst": "2",
    "ammo": "PLASMA",
    "damage": "14",
    "short_dist": "8",
    "short_mod": "3",
    "medium_dist": "16",
    "medium_mod": "3",
    "long_dist": "32",
    "long_mod": "-3",
    "max_dist": "40",
    "max_mod": "-6",
    "cc": "No",
    "template": "No",
    "note": ""
  },
  {
    "name": "Plasma Rifle",
    "mode": "(Blast Mode)",
    "alt_profile": "Plasma Rifle (Hit Mode)",
    "burst": "3",
    "ammo": "PLASMA",
    "damage": "13",
    "short_dist": "8",
    "short_mod": "3",
    "medium_dist": "16",
    "medium_mod": "3",
    "long_dist": "32",
    "long_mod": "-3",
    "max_dist": "48",
    "max_mod": "-6",
    "cc": "No",
    "template": "Impact Template (Small Teardrop)",
    "suppressive": "Yes",
    "note": ""
  },
  {
    "name": "Plasma Rifle (Hit Mode)",
    "burst": "3",
    "ammo": "PLASMA",
    "damage": "14",
    "short_dist": "8",
    "short_mod": "3",
    "medium_dist": "16",
    "medium_mod": "3",
    "long_dist": "32",
    "long_mod": "-3",
    "max_dist": "48",
    "max_mod": "-6",
    "cc": "No",
    "template": "No",
    "suppressive": "Yes",
    "note": ""
  },
  {
    "name": "Plasma Sniper Rifle",
    "mode": "(Blast Mode)",
    "alt_profile": "Plasma Sniper Rifle (Hit Mode)",
    "burst": "2",
    "ammo": "PLASMA",
    "damage": "14",
    "short_dist": "8",
    "short_mod": "-3",
    "medium_dist": "16",
    "medium_mod": "0",
    "long_dist": "48",
    "long_mod": "3",
    "max_dist": "96",
    "max_mod": "-3",
    "cc": "No",
    "template": "Impact Template (Small Teardrop)",
    "note": ""
  },
  {
    "name": "Plasma Sniper Rifle (Hit Mode)",
    "burst": "2",
    "ammo": "PLASMA",
    "damage": "15",
    "short_dist": "8",
    "short_mod": "-3",
    "medium_dist": "16",
    "medium_mod": "0",
    "long_dist": "48",
    "long_mod": "3",
    "max_dist": "96",
    "max_mod": "-3",
    "cc": "No",
    "template": "No",
    "note": ""
  },
  {
    "name": "Rifle",
    "burst": "3",
    "ammo": "N",
    "damage": "13",
    "short_dist": "8",
    "short_mod": "0",
    "medium_dist": "16",
    "medium_mod": "3",
    "long_dist": "32",
    "long_mod": "-3",
    "max_dist": "48",
    "max_mod": "-6",
    "cc": "No",
    "template": "No",
    "suppressive": "Yes",
    "note": ""
  },
  {
    "name": "Shock CCW",
    "burst": "1",
    "ammo": "Shock",
    "damage": "PH",
    "short_dist": "--",
    "short_mod": "--",
    "medium_dist": "--",
    "medium_mod": "--",
    "long_dist": "--",
    "long_mod": "--",
    "max_dist": "--",
    "max_mod": "--",
    "cc": "Yes",
    "template": "No",
    "note": ""
  },
  {
    "name": "Smoke Grenades",
    "burst": "1",
    "ammo": "Smoke",
    "damage": "--",
    "short_dist": "8",
    "short_mod": "3",
    "medium_dist": "16",
    "medium_mod": "-3",
    "long_dist": "--",
    "long_mod": "--",
    "max_dist": "--",
    "max_mod": "--",
    "attr": "PH",
    "cc": "No",
    "template": "Impact Template (Circular)",
    "note": "Non-Lethal, Special Dodge, Speculative Fire, Targetless"
  },
  {
    "name": "Smoke Light Grenade Launcher",
    "burst": "1",
    "ammo": "Smoke",
    "damage": "--",
    "short_dist": "8",
    "short_mod": "0",
    "medium_dist": "16",
    "medium_mod": "3",
    "long_dist": "24",
    "long_mod": "-3",
    "max_dist": "48",
    "max_mod": "-6",
    "cc": "No",
    "template": "Impact Template (Circular)",
    "note": "Non-Lethal, Special Dodge, Speculative Fire, Targetless"
  },
  {
    "name": "Sniper Rifle",
    "burst": "2",
    "ammo": "Shock",
    "damage": "15",
    "short_dist": "8",
    "short_mod": "-3",
    "medium_dist": "16",
    "medium_mod": "0",
    "long_dist": "48",
    "long_mod": "3",
    "max_dist": "96",
    "max_mod": "-3",
    "cc": "No",
    "template": "No",
    "note": ""
  },
  {
    "name": "Spitfire",
    "burst": "4",
    "ammo": "N",
    "damage": "14",
    "short_dist": "8",
    "short_mod": "0",
    "medium_dist": "24",
    "medium_mod": "3",
    "long_dist": "32",
    "long_mod": "-3",
    "max_dist": "48",
    "max_mod": "-6",
    "cc": "No",
    "template": "No",
    "suppressive": "Yes",
    "note": ""
  },
  {
    "name": "AP Spitfire",
    "burst": "4",
    "ammo": "AP",
    "damage": "14",
    "short_dist": "8",
    "short_mod": "0",
    "medium_dist": "24",
    "medium_mod": "3",
    "long_dist": "32",
    "long_mod": "-3",
    "max_dist": "48",
    "max_mod": "-6",
    "cc": "No",
    "template": "No",
    "suppressive": "Yes",
    "note": ""
  },
  {
    "name": "Suppressive Fire",
    "burst": "3",
    "ammo": "*",
    "damage": "*",
    "short_dist": "8",
    "short_mod": "0",
    "medium_dist": "16",
    "medium_mod": "0",
    "long_dist": "24",
    "long_mod": "-3",
    "max_dist": "--",
    "max_mod": "--",
    "cc": "No",
    "template": "No",
    "note": "*"
  },
  {
    "name": "Submachine Gun",
    "mode": "(AP Mode)",
    "alt_profile": "Submachine Gun (Shock Mode)",
    "burst": "3",
    "ammo": "AP",
    "damage": "13",
    "short_dist": "8",
    "short_mod": "3",
    "medium_dist": "16",
    "medium_mod": "0",
    "long_dist": "24",
    "long_mod": "-3",
    "max_dist": "32",
    "max_mod": "-6",
    "cc": "No",
    "template": "No",
    "suppressive": "Yes",
    "note": ""
  },
  {
    "name": "Submachine Gun (Shock Mode)",
    "burst": "3",
    "ammo": "Shock",
    "damage": "13",
    "short_dist": "8",
    "short_mod": "3",
    "medium_dist": "16",
    "medium_mod": "0",
    "long_dist": "24",
    "long_mod": "-3",
    "max_dist": "32",
    "max_mod": "-6",
    "cc": "No",
    "template": "No",
    "suppressive": "Yes",
    "note": ""
  },
  {
    "name": "T2 Boarding Shotgun",
    "mode": "(Blast Mode)",
    "alt_profile": "T2 Boarding Shotgun (T2 Mode)",
    "burst": "2",
    "ammo": "N",
    "damage": "14",
    "short_dist": "8",
    "short_mod": "6",
    "medium_dist": "16",
    "medium_mod": "0",
    "long_dist": "24",
    "long_mod": "-3",
    "max_dist": "--",
    "max_mod": "--",
    "cc": "No",
    "template": "Small Teardrop",
    "note": ""
  },
  {
    "name": "T2 Boarding Shotgun (T2 Mode)",
    "burst": "2",
    "ammo": "T2",
    "damage": "14",
    "short_dist": "8",
    "short_mod": "6",
    "medium_dist": "16",
    "medium_mod": "0",
    "long_dist": "24",
    "long_mod": "-3",
    "max_dist": "--",
    "max_mod": "--",
    "cc": "No",
    "template": "No",
    "note": "Anti-materiel"
  },
  {
    "name": "T2 Rifle",
    "burst": "3",
    "ammo": "T2",
    "damage": "13",
    "short_dist": "8",
    "short_mod": "0",
    "medium_dist": "16",
    "medium_mod": "3",
    "long_dist": "32",
    "long_mod": "-3",
    "max_dist": "48",
    "max_mod": "-6",
    "cc": "No",
    "template": "No",
    "suppressive": "Yes",
    "note": "Anti-materiel"
  },
  {
    "name": "T2 Sniper Rifle",
    "burst": "2",
    "ammo": "T2",
    "damage": "15",
    "short_dist": "8",
    "short_mod": "-3",
    "medium_dist": "16",
    "medium_mod": "0",
    "long_dist": "48",
    "long_mod": "3",
    "max_dist": "96",
    "max_mod": "-3",
    "cc": "No",
    "template": "No",
    "note": "Anti-materiel"
  },
  {
    "name": "Templar CCW (AP+Shock)",
    "burst": "--",
    "ammo": "AP+Shock",
    "damage": "PH",
    "short_dist": "--",
    "short_mod": "--",
    "medium_dist": "--",
    "medium_mod": "--",
    "long_dist": "--",
    "long_mod": "--",
    "max_dist": "--",
    "max_mod": "--",
    "cc": "Yes",
    "template": "No",
    "note": ""
  },
  {
    "name": "Templar CCW (AP+DA)",
    "burst": "--",
    "ammo": "AP+DA",
    "damage": "PH",
    "short_dist": "--",
    "short_mod": "--",
    "medium_dist": "--",
    "medium_mod": "--",
    "long_dist": "--",
    "long_mod": "--",
    "max_dist": "--",
    "max_mod": "--",
    "cc": "Yes",
    "template": "No",
    "note": "Anti-materiel"
  },
  {
    "name": "Uragan MRL",
    "mode": "(Blast Mode)",
    "alt_profile": "Uragan MRL (Guided Mode)",
    "burst": "3",
    "ammo": "AP+Shock",
    "damage": "14",
    "short_dist": "8",
    "short_mod": "0",
    "medium_dist": "16",
    "medium_mod": "3",
    "long_dist": "40",
    "long_mod": "-3",
    "max_dist": "48",
    "max_mod": "-6",
    "cc": "No",
    "template": "Impact Template (Circular)",
    "note": "Burst: Single Target, Non-lootable, Speculative Fire"
  },
  {
    "name": "Uragan MRL (Guided Mode)",
    "alt_profile": "Uragan MRL (Hit Mode)",
    "burst": "1",
    "ammo": "AP+Shock",
    "damage": "14",
    "short_dist": "--",
    "short_mod": "--",
    "medium_dist": "--",
    "medium_mod": "--",
    "long_dist": "--",
    "long_mod": "--",
    "max_dist": "--",
    "max_mod": "--",
    "cc": "No",
    "template": "Impact Template (Circular)",
    "note": "Guided, Non-lootable"
  },
  {
    "name": "Uragan MRL (Hit Mode)",
    "burst": "3",
    "ammo": "AP+Shock",
    "damage": "15",
    "short_dist": "8",
    "short_mod": "0",
    "medium_dist": "16",
    "medium_mod": "3",
    "long_dist": "40",
    "long_mod": "-3",
    "max_dist": "48",
    "max_mod": "-6",
    "cc": "No",
    "template": "No",
    "note": "Burst: Single Target, Non-lootable"
  },
  {
    "name": "Viral CCW",
    "burst": "1",
    "ammo": "Viral",
    "damage": "PH",
    "short_dist": "--",
    "short_mod": "--",
    "medium_dist": "--",
    "medium_mod": "--",
    "long_dist": "--",
    "long_mod": "--",
    "max_dist": "--",
    "max_mod": "--",
    "cc": "Yes",
    "template": "No",
    "note": ""
  },
  {
    "name": "Viral Mines",
    "burst": "1",
    "ammo": "Viral",
    "damage": "12",
    "short_dist": "--",
    "short_mod": "--",
    "medium_dist": "--",
    "medium_mod": "--",
    "long_dist": "--",
    "long_mod": "--",
    "max_dist": "--",
    "max_mod": "--",
    "cc": "No",
    "template": "Direct Template (Small Teardrop)",
    "uses": "3",
    "note": "Concealed, Deployable, Intuitive Attack"
  },
  {
    "name": "Viral Combi Rifle",
    "burst": "3",
    "ammo": "Viral",
    "damage": "13",
    "short_dist": "8",
    "short_mod": "3",
    "medium_dist": "16",
    "medium_mod": "3",
    "long_dist": "32",
    "long_mod": "-3",
    "max_dist": "48",
    "max_mod": "-6",
    "cc": "No",
    "template": "No",
    "suppressive": "Yes",
    "note": ""
  },
  {
    "name": "Viral Rifle",
    "burst": "3",
    "ammo": "Viral",
    "damage": "13",
    "short_dist": "8",
    "short_mod": "0",
    "medium_dist": "16",
    "medium_mod": "3",
    "long_dist": "32",
    "long_mod": "-3",
    "max_dist": "48",
    "max_mod": "-6",
    "cc": "No",
    "template": "No",
    "suppressive": "Yes",
    "note": ""
  },
  {
    "name": "Viral Sniper Rifle",
    "burst": "2",
    "ammo": "Viral",
    "damage": "15",
    "short_dist": "8",
    "short_mod": "-3",
    "medium_dist": "16",
    "medium_mod": "0",
    "long_dist": "48",
    "long_mod": "3",
    "max_dist": "96",
    "max_mod": "-3",
    "cc": "No",
    "template": "No",
    "note": ""
  },
  {
    "name": "Marksman Rifle",
    "burst": "3",
    "ammo": "N",
    "damage": "13",
    "short_dist": "8",
    "short_mod": "-3",
    "medium_dist": "24",
    "medium_mod": "3",
    "long_dist": "40",
    "long_mod": "-3",
    "max_dist": "48",
    "max_mod": "-6",
    "cc": "No",
    "template": "No",
    "suppressive": "Yes",
    "note": ""
  },
  {
    "name": "AP Marksman Rifle",
    "burst": "3",
    "ammo": "AP",
    "damage": "13",
    "short_dist": "8",
    "short_mod": "-3",
    "medium_dist": "24",
    "medium_mod": "3",
    "long_dist": "40",
    "long_mod": "-3",
    "max_dist": "48",
    "max_mod": "-6",
    "cc": "No",
    "template": "No",
    "suppressive": "Yes",
    "note": ""
  },
  {
    "name": "Shock Marksman Rifle",
    "burst": "3",
    "ammo": "Shock",
    "damage": "13",
    "short_dist": "8",
    "short_mod": "-3",
    "medium_dist": "24",
    "medium_mod": "3",
    "long_dist": "40",
    "long_mod": "-3",
    "max_dist": "48",
    "max_mod": "-6",
    "cc": "No",
    "template": "No",
    "suppressive": "Yes",
    "note": ""
  },
  {
    "name": "MULTI Marksman Rifle",
    "mode": "(Burst Mode)",
    "alt_profile": "MULTI Marksman Rifle (Anti-Materiel Mode)",
    "burst": "3",
    "ammo": "AP/Shock",
    "damage": "13",
    "short_dist": "8",
    "short_mod": "-3",
    "medium_dist": "24",
    "medium_mod": "3",
    "long_dist": "40",
    "long_mod": "-3",
    "max_dist": "48",
    "max_mod": "-6",
    "cc": "No",
    "template": "No",
    "suppressive": "Yes",
    "note": "Light MULTI"
  },
  {
    "name": "MULTI Marksman Rifle (Anti-Materiel Mode)",
    "alt_profile": "MULTI Marksman Rifle (Stun Mode)",
    "burst": "1",
    "ammo": "DA",
    "damage": "13",
    "short_dist": "8",
    "short_mod": "-3",
    "medium_dist": "24",
    "medium_mod": "3",
    "long_dist": "40",
    "long_mod": "-3",
    "max_dist": "48",
    "max_mod": "-6",
    "cc": "No",
    "template": "No",
    "note": "Anti-materiel, Light MULTI"
  },
  {
    "name": "MULTI Marksman Rifle (Stun Mode)",
    "burst": "1",
    "ammo": "Stun",
    "damage": "14",
    "short_dist": "8",
    "short_mod": "-3",
    "medium_dist": "24",
    "medium_mod": "3",
    "long_dist": "40",
    "long_mod": "-3",
    "max_dist": "48",
    "max_mod": "-6",
    "cc": "No",
    "template": "No",
    "note": "Light MULTI, Non-Lethal"
  },
  {
    "name": "Chain-Colt",
    "burst": "1",
    "ammo": "N",
    "damage": "13",
    "short_dist": "--",
    "short_mod": "--",
    "medium_dist": "--",
    "medium_mod": "--",
    "long_dist": "--",
    "long_mod": "--",
    "max_dist": "--",
    "max_mod": "--",
    "cc": "No",
    "template": "Direct Template (Small Teardrop)",
    "note": "Intuitive Attack"
  },
  {
    "name": "Flammenspeer",
    "mode": "(Blast Mode)",
    "alt_profile": "Flammenspeer (Hit Mode)",
    "burst": "1",
    "ammo": "Fire",
    "damage": "14",
    "short_dist": "8",
    "short_mod": "-3",
    "medium_dist": "16",
    "medium_mod": "0",
    "long_dist": "32",
    "long_mod": "3",
    "max_dist": "48",
    "max_mod": "-3",
    "cc": "No",
    "template": "Impact Template (Circular)",
    "uses": "2",
    "note": ""
  },
  {
    "name": "Flammenspeer (Hit Mode)",
    "burst": "1",
    "ammo": "Fire",
    "damage": "15",
    "short_dist": "8",
    "short_mod": "-3",
    "medium_dist": "16",
    "medium_mod": "0",
    "long_dist": "32",
    "long_mod": "3",
    "max_dist": "48",
    "max_mod": "-3",
    "cc": "No",
    "template": "No",
    "uses": "2",
    "note": ""
  },
  {
    "name": "Hedgehog Weapon",
    "burst": "1",
    "ammo": "N",
    "damage": "PH",
    "short_dist": "--",
    "short_mod": "--",
    "medium_dist": "--",
    "medium_mod": "--",
    "long_dist": "--",
    "long_mod": "--",
    "max_dist": "--",
    "max_mod": "--",
    "cc": "Yes",
    "template": "No",
    "note": ""
  },
  {
    "name": "Jammer",
    "burst": "1",
    "ammo": "--",
    "damage": "13",
    "short_dist": "8",
    "short_mod": "0",
    "medium_dist": "--",
    "medium_mod": "--",
    "long_dist": "--",
    "long_mod": "--",
    "max_dist": "--",
    "max_mod": "--",
    "attr": "WIP",
    "cc": "No",
    "template": "No",
    "note": "Intuitive Attack, State: Isolated, No LoF, Zone of Control, Comms Attack"
  },
  {
    "name": "Sepsitor",
    "burst": "1",
    "ammo": "--",
    "damage": "WIP",
    "short_dist": "--",
    "short_mod": "--",
    "medium_dist": "--",
    "medium_mod": "--",
    "long_dist": "--",
    "long_mod": "--",
    "max_dist": "--",
    "max_mod": "--",
    "cc": "No",
    "template": "Direct Template (Large Teardrop)",
    "uses": "2",
    "note": "Intuitive Attack, Non-Lootable"
  },
  {
    "name": "Sepsitor Plus",
    "burst": "1",
    "ammo": "--",
    "damage": "WIP",
    "short_dist": "--",
    "short_mod": "--",
    "medium_dist": "--",
    "medium_mod": "--",
    "long_dist": "--",
    "long_mod": "--",
    "max_dist": "--",
    "max_mod": "--",
    "cc": "No",
    "template": "Direct Template (Large Teardrop)",
    "note": "Intuitive Attack, Non-Lootable"
  },
  {
    "name": "Molotok",
    "burst": "4",
    "ammo": "AP",
    "damage": "13",
    "short_dist": "8",
    "short_mod": "0",
    "medium_dist": "24",
    "medium_mod": "3",
    "long_dist": "32",
    "long_mod": "-3",
    "max_dist": "48",
    "max_mod": "-6",
    "cc": "No",
    "template": "No",
    "suppressive": "Yes",
    "note": ""
  },
  {
    "name": "FastPanda",
    "burst": "1",
    "ammo": "--",
    "damage": "--",
    "short_dist": "--",
    "short_mod": "--",
    "medium_dist": "--",
    "medium_mod": "--",
    "long_dist": "--",
    "long_mod": "--",
    "max_dist": "--",
    "max_mod": "--",
    "cc": "No",
    "template": "No",
    "uses": 1,
    "note": "Deployable"
  },
  {
    "name": "Protheion",
    "burst": "1",
    "ammo": "Striga",
    "damage": "PH",
    "short_dist": "--",
    "short_mod": "--",
    "medium_dist": "--",
    "medium_mod": "--",
    "long_dist": "--",
    "long_mod": "--",
    "max_dist": "--",
    "max_mod": "--",
    "cc": "Yes",
    "template": "No",
    "note": ""
  },
  {
    "name": "MediKit",
    "burst": "1",
    "ammo": "MediKit",
    "damage": "--",
    "short_dist": "8",
    "short_mod": "3",
    "medium_dist": "16",
    "medium_mod": "0",
    "long_dist": "24",
    "long_mod": "-6",
    "max_dist": "--",
    "max_mod": "--",
    "cc": "No",
    "template": "No",
    "note": "Non-Lethal"
  },
  {
    "name": "Pulzar",
    "burst": "1",
    "ammo": "Nanotech",
    "damage": "13",
    "short_dist": "--",
    "short_mod": "--",
    "medium_dist": "--",
    "medium_mod": "--",
    "long_dist": "--",
    "long_mod": "--",
    "max_dist": "--",
    "max_mod": "--",
    "cc": "No",
    "template": "Direct Template (Large Teardrop)",
    "note": "Intuitive Attack, Non-Lootable"
  },
  {
    "name": "Explode L1",
    "burst": "1",
    "ammo": "Shock",
    "damage": "13",
    "short_dist": "--",
    "short_mod": "--",
    "medium_dist": "--",
    "medium_mod": "--",
    "long_dist": "--",
    "long_mod": "--",
    "max_dist": "--",
    "max_mod": "--",
    "cc": "No",
    "template": "No",
    "note": "Circular Template"
  },
  {
    "name": "Stun Grenades",
    "burst": "1",
    "ammo": "Stun",
    "damage": "15",
    "short_dist": "8",
    "short_mod": "3",
    "medium_dist": "16",
    "medium_mod": "-3",
    "long_dist": "--",
    "long_mod": "--",
    "max_dist": "--",
    "max_mod": "--",
    "attr": "PH",
    "cc": "No",
    "template": "Impact Template (Circular)",
    "note": "Non-Lethal, Speculative Fire"
  },
  {
    "name": "Stun Light Grenade Launcher",
    "burst": "1",
    "ammo": "Stun",
    "damage": "15",
    "short_dist": "8",
    "short_mod": "0",
    "medium_dist": "16",
    "medium_mod": "3",
    "long_dist": "24",
    "long_mod": "-3",
    "max_dist": "48",
    "max_mod": "-6",
    "cc": "No",
    "template": "Impact Template (Circular)",
    "note": "Non-lethal, Speculative Fire"
  },
  {
    "name": "Chest Mines",
    "alt_profile": "Chest Mines (CC Mode)",
    "burst": "1",
    "ammo": "Shock",
    "damage": "13",
    "short_dist": "--",
    "short_mod": "--",
    "medium_dist": "--",
    "medium_mod": "--",
    "long_dist": "--",
    "long_mod": "--",
    "max_dist": "--",
    "max_mod": "--",
    "cc": "No",
    "template": "Direct Template (Small Teardrop)",
    "uses": "2",
    "note": "Intuitive Attack"
  },
  {
    "name": "Chest Mines (CC Mode)",
    "burst": "1",
    "ammo": "Shock",
    "damage": "13",
    "short_dist": "--",
    "short_mod": "--",
    "medium_dist": "--",
    "medium_mod": "--",
    "long_dist": "--",
    "long_mod": "--",
    "max_dist": "--",
    "max_mod": "--",
    "attr": "",
    "cc": "Yes",
    "template": "No",
    "uses": "2",
    "note": "CC: +3"
  },
  {
    "name": "Vorpal CCW",
    "alt_profile": "Vorpal CCW (Thrown)",
    "burst": "1",
    "ammo": "Monofilament",
    "damage": "12",
    "short_dist": "--",
    "short_mod": "--",
    "medium_dist": "--",
    "medium_mod": "--",
    "long_dist": "--",
    "long_mod": "--",
    "max_dist": "--",
    "max_mod": "--",
    "cc": "Yes",
    "template": "No",
    "note": ""
  },
  {
    "name": "Vorpal CCW (Thrown)",
    "burst": "1",
    "ammo": "Monofilament",
    "damage": "12",
    "short_dist": "8",
    "short_mod": "3",
    "medium_dist": "--",
    "medium_mod": "--",
    "long_dist": "--",
    "long_mod": "--",
    "max_dist": "--",
    "max_mod": "--",
    "attr": "PH",
    "cc": "No",
    "template": "No",
    "note": ""
  },
  {
    "name": "Eclipse Grenades",
    "burst": "1",
    "ammo": "Eclipse",
    "damage": "--",
    "short_dist": "8",
    "short_mod": "3",
    "medium_dist": "16",
    "medium_mod": "-3",
    "long_dist": "--",
    "long_mod": "--",
    "max_dist": "--",
    "max_mod": "--",
    "attr": "PH",
    "cc": "No",
    "template": "Impact Template (Circular)",
    "note": "Non-lethal, Reflective, Special Dodge, Speculative Fire, Targetless"
  },
  {
    "name": "Eclipse Light Grenade Launcher",
    "burst": "1",
    "ammo": "Eclipse",
    "damage": "--",
    "short_dist": "8",
    "short_mod": "0",
    "medium_dist": "16",
    "medium_mod": "3",
    "long_dist": "24",
    "long_mod": "-3",
    "max_dist": "48",
    "max_mod": "-6",
    "cc": "No",
    "template": "Impact Template (Circular)",
    "note": "Non-lethal, Reflective, Special Dodge, Speculative Fire, Targetless"
  },
  {
    "name": "Red Fury",
    "burst": "4",
    "ammo": "Shock",
    "damage": "13",
    "short_dist": "8",
    "short_mod": "0",
    "medium_dist": "24",
    "medium_mod": "3",
    "long_dist": "40",
    "long_mod": "-3",
    "max_dist": "48",
    "max_mod": "-6",
    "cc": "No",
    "template": "No",
    "suppressive": "Yes",
    "note": ""
  },
  {
    "name": "T2 CCW",
    "burst": "1",
    "ammo": "T2",
    "damage": "PH",
    "short_dist": "--",
    "short_mod": "--",
    "medium_dist": "--",
    "medium_mod": "--",
    "long_dist": "--",
    "long_mod": "--",
    "max_dist": "--",
    "max_mod": "--",
    "cc": "Yes",
    "template": "No",
    "note": ""
  },
  {
    "name": "Viral Pistol",
    "alt_profile": "Viral Pistol (CC Mode)",
    "burst": "2",
    "ammo": "Viral",
    "damage": "12",
    "short_dist": "8",
    "short_mod": "3",
    "medium_dist": "16",
    "medium_mod": "0",
    "long_dist": "24",
    "long_mod": "-6",
    "max_dist": "--",
    "max_mod": "--",
    "cc": "No",
    "template": "No",
    "note": ""
  },
  {
    "name": "Viral Pistol (CC Mode)",
    "burst": "1",
    "ammo": "Viral",
    "damage": "12",
    "short_dist": "--",
    "short_mod": "--",
    "medium_dist": "--",
    "medium_mod": "--",
    "long_dist": "--",
    "long_mod": "--",
    "max_dist": "--",
    "max_mod": "--",
    "cc": "Yes",
    "template": "No",
    "note": ""
  },
  {
    "name": "AP+Shock CCW",
    "burst": "--",
    "ammo": "AP+Shock",
    "damage": "PH",
    "short_dist": "--",
    "short_mod": "--",
    "medium_dist": "--",
    "medium_mod": "--",
    "long_dist": "--",
    "long_mod": "--",
    "max_dist": "--",
    "max_mod": "--",
    "cc": "Yes",
    "template": "No",
    "note": ""
  },
]
